alex hayes - speeding up GPX ingest: profiling, Rcpp and furrr
…
Using plotKML::readGPX we can read the representative file into R:

trajectory <- gpx::read_gpx(fname)$tracks |> 
  as_tibble() |> 
  unnest() |> 
  janitor::clean_names() |> 
  select(-extensions, segment_id)

Warning: `cols` is now required when using unnest().
Please use `cols = c(`analytically slow`)`

trajectory

# A tibble: 1,472 × 5
   elevation time                latitude longitude segment_id
       <dbl> <dttm>                 <dbl>     <dbl>      <int>
 1      14.1 2017-10-31 17:58:22     29.7     -95.4          1
 2      14.4 2017-10-31 17:58:29     29.7     -95.4          1
 3      14.5 2017-10-31 17:58:30     29.7     -95.4          1
 4      14.6 2017-10-31 17:58:31     29.7     -95.4          1
 5      14.6 2017-10-31 17:58:32     29.7     -95.4          1
 6      14.7 2017-10-31 17:58:33     29.7     -95.4          1
 7      14.7 2017-10-31 17:58:34     29.7     -95.4          1
 8      14.7 2017-10-31 17:58:36     29.7     -95.4          1
 9      14.7 2017-10-31 17:58:37     29.7     -95.4          1
10      14.7 2017-10-31 17:58:38     29.7     -95.4          1
# … with 1,462 more rows

We want to compare location at \(t\) and \(t - 1\), so we create a lagged column of longitudes and latitudes. We put longitude and latitude together into a vector to play well with raster::pointDistance, which we’ll use to compute the great circle distance between two points.

lagged <- trajectory |> 
    mutate(x = map2(longitude, latitude, c),  # create lagged position, this means the 
           x_old = lag(x),         # first row isn't complete
           t_old = lag(time)) |> 
    slice(-1)                      # remove incomplete first row

lagged

# A tibble: 1,471 × 8
   eleva…¹ time                lat…² lon…³ seg…⁴ x     x_old t_old              
     <dbl> <dttm>              <dbl> <dbl> <int> <lis> <lis> <dttm>             
 1    14.4 2017-10-31 17:58:29  29.7 -95.4     1 <dbl> <dbl> 2017-10-31 17:58:22
 2    14.5 2017-10-31 17:58:30  29.7 -95.4     1 <dbl> <dbl> 2017-10-31 17:58:29
 3    14.6 2017-10-31 17:58:31  29.7 -95.4     1 <dbl> <dbl> 2017-10-31 17:58:30
 4    14.6 2017-10-31 17:58:32  29.7 -95.4     1 <dbl> <dbl> 2017-10-31 17:58:31
 5    14.7 2017-10-31 17:58:33  29.7 -95.4     1 <dbl> <dbl> 2017-10-31 17:58:32
 6    14.7 2017-10-31 17:58:34  29.7 -95.4     1 <dbl> <dbl> 2017-10-31 17:58:33
 7    14.7 2017-10-31 17:58:36  29.7 -95.4     1 <dbl> <dbl> 2017-10-31 17:58:34
 8    14.7 2017-10-31 17:58:37  29.7 -95.4     1 <dbl> <dbl> 2017-10-31 17:58:36
 9    14.7 2017-10-31 17:58:38  29.7 -95.4     1 <dbl> <dbl> 2017-10-31 17:58:37
10    14.7 2017-10-31 17:58:39  29.7 -95.4     1 <dbl> <dbl> 2017-10-31 17:58:38
# … with 1,461 more rows, and abbreviated variable names ¹​elevation, ²​latitude,
#   ³​longitude, ⁴​segment_id

It turns out this data is not contiguous. Strava has a feature called autopause which detects pauses in runs (for example, at a stoplight), and GPS readings during paused periods are not include in the GPX files1. GPS readings typically happen once every second. I plotted the time gaps between readings and realized that time gaps greater than three seconds between two GPS recordings indicated a pause. This lets me break the run down into a series of contigous segments:

segmented <- lagged |> 
  mutate(rest = as.numeric(time - t_old),     # seconds
         new_segment = as.numeric(rest > 3),  
         segment = cumsum(new_segment)) |>
  
  # don't want t_old to be from previous segment
  group_by(segment) |> 
  slice(-1)  
    
segmented

# A tibble: 1,464 × 11
# Groups:   segment [5]
   eleva…¹ time                lat…² lon…³ seg…⁴ x     x_old t_old              
     <dbl> <dttm>              <dbl> <dbl> <int> <lis> <lis> <dttm>             
 1    14.5 2017-10-31 17:58:30  29.7 -95.4     1 <dbl> <dbl> 2017-10-31 17:58:29
 2    14.6 2017-10-31 17:58:31  29.7 -95.4     1 <dbl> <dbl> 2017-10-31 17:58:30
 3    14.6 2017-10-31 17:58:32  29.7 -95.4     1 <dbl> <dbl> 2017-10-31 17:58:31
 4    14.7 2017-10-31 17:58:33  29.7 -95.4     1 <dbl> <dbl> 2017-10-31 17:58:32
 5    14.7 2017-10-31 17:58:34  29.7 -95.4     1 <dbl> <dbl> 2017-10-31 17:58:33
 6    14.7 2017-10-31 17:58:36  29.7 -95.4     1 <dbl> <dbl> 2017-10-31 17:58:34
 7    14.7 2017-10-31 17:58:37  29.7 -95.4     1 <dbl> <dbl> 2017-10-31 17:58:36
 8    14.7 2017-10-31 17:58:38  29.7 -95.4     1 <dbl> <dbl> 2017-10-31 17:58:37
 9    14.7 2017-10-31 17:58:39  29.7 -95.4     1 <dbl> <dbl> 2017-10-31 17:58:38
10    14.6 2017-10-31 17:58:40  29.7 -95.4     1 <dbl> <dbl> 2017-10-31 17:58:39
# … with 1,454 more rows, abbreviated variable names ¹​elevation, ²​latitude,
#   ³​longitude, ⁴​segment_id, and 3 more variables: rest <dbl>,
#   new_segment <dbl>, segment <dbl>
…
useful

# A tibble: 1,464 × 11
   time                lat…¹ lon…² seg…³  rest seg…⁴ seg…⁵      dx      dt speed
   <dttm>              <dbl> <dbl> <int> <dbl> <dbl> <drt>   <dbl>   <dbl> <dbl>
 1 2017-10-31 17:58:30  29.7 -95.4     1     1     1 510 … 0.00423 2.78e-4 15.2 
 2 2017-10-31 17:58:31  29.7 -95.4     1     1     1 510 … 0.00367 2.78e-4 13.2 
 3 2017-10-31 17:58:32  29.7 -95.4     1     1     1 510 … 0.00197 2.78e-4  7.11
 4 2017-10-31 17:58:33  29.7 -95.4     1     1     1 510 … 0.00483 2.78e-4 17.4 
 5 2017-10-31 17:58:34  29.7 -95.4     1     1     1 510 … 0.00230 2.78e-4  8.28
 6 2017-10-31 17:58:36  29.7 -95.4     1     2     1 510 … 0.00410 5.56e-4  7.38
 7 2017-10-31 17:58:37  29.7 -95.4     1     1     1 510 … 0.00243 2.78e-4  8.75
 8 2017-10-31 17:58:38  29.7 -95.4     1     1     1 510 … 0.00316 2.78e-4 11.4 
 9 2017-10-31 17:58:39  29.7 -95.4     1     1     1 510 … 0.00415 2.78e-4 15.0 
10 2017-10-31 17:58:40  29.7 -95.4     1     1     1 510 … 0.00363 2.78e-4 13.1 
# … with 1,454 more rows, abbreviated variable names ¹​latitude, ²​longitude,
#   ³​segment_id, ⁴​segment, ⁵​seg_length, and 1 more variable: pace <dbl>
…
extract_gps_point <- function(point) {
  tibble(
    longitude = attr(point, "lon"),
    latitude = attr(point, "lat"),
    ele = point$ele[[1]],
    time = point$time[[1]]
  )
}

map_dfr(gps_pts, extract_gps_point)

# A tibble: 1,472 × 4
   longitude   latitude   ele   time                
   <chr>       <chr>      <chr> <chr>               
 1 -95.3978210 29.7169490 14.1  2017-10-31T17:58:22Z
 2 -95.3977180 29.7168040 14.4  2017-10-31T17:58:29Z
 3 -95.3976890 29.7167480 14.5  2017-10-31T17:58:30Z
 4 -95.3976530 29.7167050 14.6  2017-10-31T17:58:31Z
 5 -95.3976600 29.7166770 14.6  2017-10-31T17:58:32Z
 6 -95.3976330 29.7166110 14.7  2017-10-31T17:58:33Z
 7 -95.3976090 29.7165850 14.7  2017-10-31T17:58:34Z
 8 -95.3975830 29.7165300 14.7  2017-10-31T17:58:36Z
 9 -95.3975780 29.7164950 14.7  2017-10-31T17:58:37Z
10 -95.3975630 29.7164510 14.7  2017-10-31T17:58:38Z
# … with 1,462 more rows
…
