speeding up GPX ingest: profiling, Rcpp and furrr – alex hayes
…
  return(ret)
}

Using plotKML::readGPX we can read the representative file into R.

gps_raw <- readGPX(fname)$tracks[[1]][[1]]  |> 
  as_tibble()

gps_raw

# A tibble: 1,472 × 4
     lon   lat ele   time                
   <dbl> <dbl> <chr> <chr>               
 1 -95.4  29.7 14.1  2017-10-31T17:58:22Z
 2 -95.4  29.7 14.4  2017-10-31T17:58:29Z
 3 -95.4  29.7 14.5  2017-10-31T17:58:30Z
 4 -95.4  29.7 14.6  2017-10-31T17:58:31Z
 5 -95.4  29.7 14.6  2017-10-31T17:58:32Z
 6 -95.4  29.7 14.7  2017-10-31T17:58:33Z
 7 -95.4  29.7 14.7  2017-10-31T17:58:34Z
 8 -95.4  29.7 14.7  2017-10-31T17:58:36Z
 9 -95.4  29.7 14.7  2017-10-31T17:58:37Z
10 -95.4  29.7 14.7  2017-10-31T17:58:38Z
# ℹ 1,462 more rows

Now we can we correct the type information:

library(lubridate)

retyped <- gps_raw |>
  mutate_at(vars(lon, lat, ele), as.numeric) |>
  mutate_at(vars(time), lubridate::ymd_hms)

retyped

# A tibble: 1,472 × 4
     lon   lat   ele time               
   <dbl> <dbl> <dbl> <dttm>             
 1 -95.4  29.7  14.1 2017-10-31 17:58:22
 2 -95.4  29.7  14.4 2017-10-31 17:58:29
 3 -95.4  29.7  14.5 2017-10-31 17:58:30
 4 -95.4  29.7  14.6 2017-10-31 17:58:31
 5 -95.4  29.7  14.6 2017-10-31 17:58:32
 6 -95.4  29.7  14.7 2017-10-31 17:58:33
 7 -95.4  29.7  14.7 2017-10-31 17:58:34
 8 -95.4  29.7  14.7 2017-10-31 17:58:36
 9 -95.4  29.7  14.7 2017-10-31 17:58:37
10 -95.4  29.7  14.7 2017-10-31 17:58:38
# ℹ 1,462 more rows

We want to compare location at \(t\) and \(t - 1\), so we create a lagged column of longitudes and latitudes. We put longitude and latitude together into a vector to play well with raster::pointDistance, which we’ll use to compute the great circle distance between two points.

lagged <- retyped |>
  mutate(
    x = map2(lon, lat, c), # create lagged position, this means the
    x_old = lag(x),        # first row isn't complete
    t_old = lag(time)
  ) |>
  slice(-1) # remove incomplete first row

lagged

# A tibble: 1,471 × 7
     lon   lat   ele time                x         x_old     t_old              
   <dbl> <dbl> <dbl> <dttm>              <list>    <list>    <dttm>             
 1 -95.4  29.7  14.4 2017-10-31 17:58:29 <dbl [2]> <dbl [2]> 2017-10-31 17:58:22
 2 -95.4  29.7  14.5 2017-10-31 17:58:30 <dbl [2]> <dbl [2]> 2017-10-31 17:58:29
 3 -95.4  29.7  14.6 2017-10-31 17:58:31 <dbl [2]> <dbl [2]> 2017-10-31 17:58:30
 4 -95.4  29.7  14.6 2017-10-31 17:58:32 <dbl [2]> <dbl [2]> 2017-10-31 17:58:31
 5 -95.4  29.7  14.7 2017-10-31 17:58:33 <dbl [2]> <dbl [2]> 2017-10-31 17:58:32
 6 -95.4  29.7  14.7 2017-10-31 17:58:34 <dbl [2]> <dbl [2]> 2017-10-31 17:58:33
 7 -95.4  29.7  14.7 2017-10-31 17:58:36 <dbl [2]> <dbl [2]> 2017-10-31 17:58:34
 8 -95.4  29.7  14.7 2017-10-31 17:58:37 <dbl [2]> <dbl [2]> 2017-10-31 17:58:36
 9 -95.4  29.7  14.7 2017-10-31 17:58:38 <dbl [2]> <dbl [2]> 2017-10-31 17:58:37
10 -95.4  29.7  14.7 2017-10-31 17:58:39 <dbl [2]> <dbl [2]> 2017-10-31 17:58:38
# ℹ 1,461 more rows
It turns out this data is not contiguous. Strava has a feature called autopause which detects pauses in runs (for example, at a stoplight), and GPS readings during paused periods are not include in the GPX files1. GPS readings typically happen once every second. I plotted the time gaps between readings and realized that time gaps greater than three seconds between two GPS recordings indicated a pause. This lets me break the run down into a series of contigous segments:

segmented <- lagged |>
  mutate(
    rest = as.numeric(time - t_old), # seconds
    new_segment = as.numeric(rest > 3),
    segment = cumsum(new_segment)
  ) |>
  # don't want t_old to be from previous segment
  group_by(segment) |>
  slice(-1)

segmented

# A tibble: 1,464 × 10
# Groups:   segment [5]
     lon   lat   ele time                x      x_old  t_old                rest
   <dbl> <dbl> <dbl> <dttm>              <list> <list> <dttm>              <dbl>
 1 -95.4  29.7  14.5 2017-10-31 17:58:30 <dbl>  <dbl>  2017-10-31 17:58:29     1
 2 -95.4  29.7  14.6 2017-10-31 17:58:31 <dbl>  <dbl>  2017-10-31 17:58:30     1
 3 -95.4  29.7  14.6 2017-10-31 17:58:32 <dbl>  <dbl>  2017-10-31 17:58:31     1
 4 -95.4  29.7  14.7 2017-10-31 17:58:33 <dbl>  <dbl>  2017-10-31 17:58:32     1
 5 -95.4  29.7  14.7 2017-10-31 17:58:34 <dbl>  <dbl>  2017-10-31 17:58:33     1
 6 -95.4  29.7  14.7 2017-10-31 17:58:36 <dbl>  <dbl>  2017-10-31 17:58:34     2
 7 -95.4  29.7  14.7 2017-10-31 17:58:37 <dbl>  <dbl>  2017-10-31 17:58:36     1
 8 -95.4  29.7  14.7 2017-10-31 17:58:38 <dbl>  <dbl>  2017-10-31 17:58:37     1
 9 -95.4  29.7  14.7 2017-10-31 17:58:39 <dbl>  <dbl>  2017-10-31 17:58:38     1
10 -95.4  29.7  14.6 2017-10-31 17:58:40 <dbl>  <dbl>  2017-10-31 17:58:39     1
# ℹ 1,454 more rows
# ℹ 2 more variables: new_segment <dbl>, segment <dbl>
…
useful

# A tibble: 1,464 × 10
     lon   lat time                segment seg_length      dx       dt speed
   <dbl> <dbl> <dttm>                <dbl> <drtn>       <dbl>    <dbl> <dbl>
 1 -95.4  29.7 2017-10-31 17:58:30       1 510 secs   0.00423 0.000278 15.2 
 2 -95.4  29.7 2017-10-31 17:58:31       1 510 secs   0.00367 0.000278 13.2 
 3 -95.4  29.7 2017-10-31 17:58:32       1 510 secs   0.00197 0.000278  7.11
 4 -95.4  29.7 2017-10-31 17:58:33       1 510 secs   0.00483 0.000278 17.4 
 5 -95.4  29.7 2017-10-31 17:58:34       1 510 secs   0.00230 0.000278  8.28
 6 -95.4  29.7 2017-10-31 17:58:36       1 510 secs   0.00410 0.000556  7.38
 7 -95.4  29.7 2017-10-31 17:58:37       1 510 secs   0.00243 0.000278  8.75
 8 -95.4  29.7 2017-10-31 17:58:38       1 510 secs   0.00316 0.000278 11.4 
 9 -95.4  29.7 2017-10-31 17:58:39       1 510 secs   0.00415 0.000278 15.0 
10 -95.4  29.7 2017-10-31 17:58:40       1 510 secs   0.00363 0.000278 13.1 
# ℹ 1,454 more rows
# ℹ 2 more variables: pace <dbl>, elev <dbl>
…
extract_gps_point <- function(point) {
  tibble(
    lon = attr(point, "lon"),
    lat = attr(point, "lat"),
    ele = point$ele[[1]],
    time = point$time[[1]]
  )
}

map_dfr(gps_pts, extract_gps_point)

# A tibble: 1,472 × 4
   lon         lat        ele   time                
   <chr>       <chr>      <chr> <chr>               
 1 -95.3978210 29.7169490 14.1  2017-10-31T17:58:22Z
 2 -95.3977180 29.7168040 14.4  2017-10-31T17:58:29Z
 3 -95.3976890 29.7167480 14.5  2017-10-31T17:58:30Z
 4 -95.3976530 29.7167050 14.6  2017-10-31T17:58:31Z
 5 -95.3976600 29.7166770 14.6  2017-10-31T17:58:32Z
 6 -95.3976330 29.7166110 14.7  2017-10-31T17:58:33Z
 7 -95.3976090 29.7165850 14.7  2017-10-31T17:58:34Z
 8 -95.3975830 29.7165300 14.7  2017-10-31T17:58:36Z
 9 -95.3975780 29.7164950 14.7  2017-10-31T17:58:37Z
10 -95.3975630 29.7164510 14.7  2017-10-31T17:58:38Z
# ℹ 1,462 more rows
…
Here timings are relative. We see that read_gpx4 is about ten times faster than read_gpx1 and two times faster than read_gpx0.

Embarrassing parallelization with furrr

In the end, I needed to do this for about fifty files. Since we can process each file independently of the other files, this operation is embarrassingly parallel. I actually wanted to use this data, so I didn’t use the C++ haversine distance function. We can write with a single map call to process all the files at once:

run_files_subset <- run_files[1:10]

map_dfr(run_files_subset, read_gpx3, .id = "run")

# A tibble: 11,780 × 11
   run     lon   lat time                segment seg_length      dx       dt
   <chr> <dbl> <dbl> <dttm>                <dbl> <drtn>       <dbl>    <dbl>
 1 1     -95.4  29.7 2017-10-29 18:31:00       2 907 secs   0.00250 0.000278
 2 1     -95.4  29.7 2017-10-29 18:31:01       2 907 secs   0.00245 0.000278
 3 1     -95.4  29.7 2017-10-29 18:31:02       2 907 secs   0.00234 0.000278
 4 1     -95.4  29.7 2017-10-29 18:31:03       2 907 secs   0.00289 0.000278
 5 1     -95.4  29.7 2017-10-29 18:31:04       2 907 secs   0.00341 0.000278
 6 1     -95.4  29.7 2017-10-29 18:31:05       2 907 secs   0.00315 0.000278
 7 1     -95.4  29.7 2017-10-29 18:31:06       2 907 secs   0.00761 0.000278
 8 1     -95.4  29.7 2017-10-29 18:31:08       2 907 secs   0.00244 0.000556
 9 1     -95.4  29.7 2017-10-29 18:31:09       2 907 secs   0.00322 0.000278
10 1     -95.4  29.7 2017-10-29 18:31:11       2 907 secs   0.00349 0.000556
# ℹ 11,770 more rows
# ℹ 3 more variables: speed <dbl>, pace <dbl>, elev <dbl>

Which means we can also write this as a parallelized map call with furrr like so:

library(furrr)
plan(multisession, workers = 12)

future_map_dfr(run_files, read_gpx3, .id = "run")

# A tibble: 59,833 × 11
   run     lon   lat time                segment seg_length      dx       dt
   <chr> <dbl> <dbl> <dttm>                <dbl> <drtn>       <dbl>    <dbl>
 1 1     -95.4  29.7 2017-10-29 18:31:00       2 907 secs   0.00250 0.000278
 2 1     -95.4  29.7 2017-10-29 18:31:01       2 907 secs   0.00245 0.000278
 3 1     -95.4  29.7 2017-10-29 18:31:02       2 907 secs   0.00234 0.000278
 4 1     -95.4  29.7 2017-10-29 18:31:03       2 907 secs   0.00289 0.000278
 5 1     -95.4  29.7 2017-10-29 18:31:04       2 907 secs   0.00341 0.000278
 6 1     -95.4  29.7 2017-10-29 18:31:05       2 907 secs   0.00315 0.000278
 7 1     -95.4  29.7 2017-10-29 18:31:06       2 907 secs   0.00761 0.000278
 8 1     -95.4  29.7 2017-10-29 18:31:08       2 907 secs   0.00244 0.000556
 9 1     -95.4  29.7 2017-10-29 18:31:09       2 907 secs   0.00322 0.000278
10 1     -95.4  29.7 2017-10-29 18:31:11       2 907 secs   0.00349 0.000556
# ℹ 59,823 more rows
# ℹ 3 more variables: speed <dbl>, pace <dbl>, elev <dbl>
…
