predictive performance via bootstrap variants – alex hayes
…
library(tidyverse)
library(rsample)
library(Metrics)

set.seed(27)

data <- read_xlsx(here("post", "2018-05-03_performance-assessments-via-bootstrap-variants", "us_avg_tuition.xlsx")) %>% 
  transmute(state = State,
            avg_tuition_15_16 = `2015-16`,
            avg_tuition_14_15 = `2014-15`) %>% 
  mutate_if(is.numeric, round)

data

# A tibble: 50 × 3
   state       avg_tuition_15_16 avg_tuition_14_15
   <chr>                   <dbl>             <dbl>
 1 Alabama                  9751              9496
 2 Alaska                   6571              6149
 3 Arizona                 10646             10414
 4 Arkansas                 7867              7606
 5 California               9270              9187
 6 Colorado                 9748              9299
 7 Connecticut             11397             10664
 8 Delaware                11676             11515
 9 Florida                  6360              6345
10 Georgia                  8447              8063
# … with 40 more rows
…
\[\texttt{0.632+ bootstrap error} = \\ \quad \\ \texttt{w} \cdot \texttt{out of sample bootstrap error} + \\ (1 - \texttt{w}) \cdot \texttt{in sample error}\]

The idea is that the 0.632 estimator can be optimistic, and to take overfitting into account to correct this. If the relative overfitting is zero, the 0.632+ estimator reduces to the 0.632 estimator.

Actually calculating these things in R

Before anything else, we need bootstrap samples. Luckily, the rsample package makes this super convenient.

# create an `rset` object: a data frame with a list-column full
# of bootstrap resamples
boots <- bootstraps(data, times = 25)
boots

# Bootstrap sampling 
# A tibble: 25 × 2
   splits          id         
   <list>          <chr>      
 1 <split [50/19]> Bootstrap01
 2 <split [50/20]> Bootstrap02
 3 <split [50/17]> Bootstrap03
 4 <split [50/18]> Bootstrap04
 5 <split [50/14]> Bootstrap05
 6 <split [50/13]> Bootstrap06
 7 <split [50/15]> Bootstrap07
 8 <split [50/20]> Bootstrap08
 9 <split [50/17]> Bootstrap09
10 <split [50/13]> Bootstrap10
# … with 15 more rows
The individual bootstrap samples are contained in the rsplit objects:

one_boot <- boots$splits[[1]]
one_boot

<Analysis/Assess/Total>
<50/19/50>

This print method is to help track which data went into the bootstrap sample. The format here is <# data points in resampled data set / # original data points not in the resampled data set / # original data points>.

If we want to see the bootstrap sample itself, we can:

analysis(one_boot)

# A tibble: 50 × 3
   state          avg_tuition_15_16 avg_tuition_14_15
   <chr>                      <dbl>             <dbl>
 1 California                  9270              9187
 2 Wyoming                     4891              4654
 3 Florida                     6360              6345
 4 South Carolina             11816             11470
 5 Maine                       9573              9560
 6 Kansas                      8530              8270
 7 North Carolina              6973              6685
 8 Missouri                    8564              8409
 9 North Carolina              6973              6685
10 Alabama                     9751              9496
# … with 40 more rows
…
