some things i’ve learned about stan – alex hayes
…
sample_n <- function(theta, n, id) {
  samples <- map_dfr(1:n, ~sample_one(theta))
  samples <- add_column(samples, y = id, .before = TRUE)
  mutate_all(samples, as.integer)
}

Then we sample 35 times from group 0 and 35 times from group 1, and look at the resulting data:

df <- sample_n(theta_0, 35, id = 0) %>%
  bind_rows(sample_n(theta_1, 35, id = 1))

df

# A tibble: 70 × 16
       y    q1    q2    q3    q4    q5    q6    q7    q8    q9   q10   q11   q12
   <int> <int> <int> <int> <int> <int> <int> <int> <int> <int> <int> <int> <int>
 1     0     4     1     1     5     4     5     1     1     5     4     1     3
 2     0     2     2     4     3     4     3     2     2     3     3     2     2
 3     0     4     2     5     3     5     1     2     4     3     3     2     2
 4     0     2     2     1     3     1     4     2     4     4     1     2     4
 5     0     5     1     4     4     4     1     4     4     4     1     2     1
 6     0     3     2     5     2     3     3     4     4     1     5     4     5
 7     0     1     4     2     1     3     3     2     1     4     1     4     1
 8     0     4     1     3     2     1     3     3     3     3     1     2     5
 9     0     5     1     1     1     3     1     4     4     3     1     1     3
10     0     4     2     3     3     2     1     3     1     3     5     1     2
# ℹ 60 more rows
# ℹ 3 more variables: q13 <int>, q14 <int>, q15 <int>
…
