alex hayes - understanding multinomial regression with partial dependence plots
…
We want to know the predictions of \(\hat f\) at each point on this grid. I define a helper in the spirit of broom::augment() for this:

library(broom)

augment.multinom <- function(object, newdata) {
  newdata <- as_tibble(newdata)
  class_probs <- predict(object, newdata, type = "prob")
  bind_cols(newdata, as_tibble(class_probs))
}

au <- augment(fit, grid)
au

# A tibble: 5,005 × 8
   Sepal.Length Sepal.Width Petal.Length Petal…¹ Spe…²   setosa versi…³ virgin…⁴
          <dbl>       <dbl>        <dbl>   <dbl> <fct>    <dbl>   <dbl>    <dbl>
 1          4.3         2            3.5     1   vers… 2.15e-11 1.00e+0 2.34e- 7
 2          4.3         2.2          4       1   vers… 9.89e-14 1.00e+0 6.84e- 6
 3          4.3         2.2          4.5     1.5 vers… 4.76e-17 1.27e-1 8.73e- 1
 4          4.3         2.2          5       1.5 virg… 3.96e-22 1.31e-3 9.99e- 1
 5          4.3         2.3          1.3     0.3 seto… 9.99e- 1 7.32e-4 6.71e-26
 6          4.3         2.3          3.3     1   vers… 5.06e- 9 1.00e+0 4.82e- 9
 7          4.3         2.3          4       1.3 vers… 5.98e-13 9.99e-1 8.33e- 4
 8          4.3         2.3          4.4     1.3 vers… 1.94e-15 9.65e-1 3.48e- 2
 9          4.3         2.4          3.3     1   vers… 1.21e- 8 1.00e+0 2.48e- 9
10          4.3         2.4          3.7     1   vers… 4.05e-11 1.00e+0 1.07e- 7
# … with 4,995 more rows, and abbreviated variable names ¹​Petal.Width,
#   ²​Species, ³​versicolor, ⁴​virginica

Now we have the predictions and we marginalize by taking the average for each point in \(x_s\):

pd <- au %>%
  gather(class, prob, setosa, versicolor, virginica) %>% 
  group_by(class, !!var) %>%
  summarize(marginal_prob = mean(prob))
pd

# A tibble: 105 × 3
# Groups:   class [3]
   class  Sepal.Length marginal_prob
   <chr>         <dbl>         <dbl>
 1 setosa          4.3         0.322
 2 setosa          4.4         0.322
 3 setosa          4.5         0.322
 4 setosa          4.6         0.322
 5 setosa          4.7         0.322
 6 setosa          4.8         0.322
 7 setosa          4.9         0.322
 8 setosa          5           0.322
 9 setosa          5.1         0.322
10 setosa          5.2         0.322
# … with 95 more rows
…
  augment(fit, grid) %>% 
    gather(class, prob, setosa, versicolor, virginica) %>% 
    group_by(class, !!var) %>%
    summarize(marginal_prob = mean(prob))
}

all_dependencies <- colnames(iris)[1:4] %>% 
  map_dfr(partial_dependence) %>% 
  gather(feature, feature_value, -class, -marginal_prob) %>% 
  na.omit()

all_dependencies

# A tibble: 369 × 4
# Groups:   class [3]
   class  marginal_prob feature      feature_value
   <chr>          <dbl> <chr>                <dbl>
 1 setosa         0.322 Sepal.Length           4.3
 2 setosa         0.322 Sepal.Length           4.4
 3 setosa         0.322 Sepal.Length           4.5
 4 setosa         0.322 Sepal.Length           4.6
 5 setosa         0.322 Sepal.Length           4.7
 6 setosa         0.322 Sepal.Length           4.8
 7 setosa         0.322 Sepal.Length           4.9
 8 setosa         0.322 Sepal.Length           5  
 9 setosa         0.322 Sepal.Length           5.1
10 setosa         0.322 Sepal.Length           5.2
# … with 359 more rows
…
