alex hayes – TODO
…
      Published

        January 24, 2024

# A tibble: 929 × 3
    SAIQ    IQ overconfidence
   <dbl> <dbl>          <dbl>
 1    85  69.2          15.8 
 2    85  82.4           2.62
 3    85  71.8          13.2 
 4    85  71.8          13.2 
 5    95  65.1          29.9 
 6    95  65.1          29.9 
 7    95  78.9          16.1 
 8    95  91.7           3.30
 9    95  65.1          29.9 
10    95  65.1          29.9 
# ℹ 919 more rows
…
# A tibble: 1,858 × 7
   mu_hat mu_se param sigma_hat sigma_se sigma_low sigma_high
    <dbl> <dbl> <chr>     <dbl>    <dbl>     <dbl>      <dbl>
 1   113. 1.40  1            NA       NA        NA         NA
 2   117. 0.912 1            NA       NA        NA         NA
 3   113. 1.30  1            NA       NA        NA         NA
 4   113. 1.30  1            NA       NA        NA         NA
 5   111. 1.55  1            NA       NA        NA         NA
 6   111. 1.55  1            NA       NA        NA         NA
 7   116. 1.03  1            NA       NA        NA         NA
 8   120. 0.614 1            NA       NA        NA         NA
 9   111. 1.55  1            NA       NA        NA         NA
10   111. 1.55  1            NA       NA        NA         NA
# ℹ 1,848 more rows

# A tibble: 929 × 3
   mu_hat mu_se param
    <dbl> <dbl> <chr>
 1   113. 1.40  mu   
 2   117. 0.912 mu   
 3   113. 1.30  mu   
 4   113. 1.30  mu   
 5   111. 1.55  mu   
 6   111. 1.55  mu   
 7   116. 1.03  mu   
 8   120. 0.614 mu   
 9   111. 1.55  mu   
10   111. 1.55  mu   
# ℹ 919 more rows

tibble [929 × 3] (S3: tbl_df/tbl/data.frame)
 $ mu_hat: num [1:929] 113 117 113 113 111 ...
 $ mu_se : Named num [1:929] 1.396 0.912 1.298 1.298 1.551 ...
  ..- attr(*, "names")= chr [1:929] "1" "2" "3" "4" ...
 $ param : chr [1:929] "mu" "mu" "mu" "mu" ...

# A tibble: 929 × 2
     fit se.fit
   <dbl>  <dbl>
 1  113.  1.40 
 2  117.  0.912
 3  113.  1.30 
 4  113.  1.30 
 5  111.  1.55 
 6  111.  1.55 
 7  116.  1.03 
 8  120.  0.614
 9  111.  1.55 
10  111.  1.55 
# ℹ 919 more rows
…
