alex hayes - implementing the super learner with tidymodels
…
plan(multicore)  

set.seed(27)  # the one true seed

We’ll build a super learner on the iris dataset, which is build into R. iris looks like:

data <- as_tibble(iris)
data

# A tibble: 150 × 5
   Sepal.Length Sepal.Width Petal.Length Petal.Width Species
          <dbl>       <dbl>        <dbl>       <dbl> <fct>  
 1          5.1         3.5          1.4         0.2 setosa 
 2          4.9         3            1.4         0.2 setosa 
 3          4.7         3.2          1.3         0.2 setosa 
 4          4.6         3.1          1.5         0.2 setosa 
 5          5           3.6          1.4         0.2 setosa 
 6          5.4         3.9          1.7         0.4 setosa 
 7          4.6         3.4          1.4         0.3 setosa 
 8          5           3.4          1.5         0.2 setosa 
 9          4.4         2.9          1.4         0.2 setosa 
10          4.9         3.1          1.5         0.1 setosa 
# … with 140 more rows
…
  x <- juice(prepped, all_predictors())
  y <- juice(prepped, all_outcomes())
  
  fit_xy(spec, x, y)
}

Now we create a tibble containing all combinations of the cross-validation resamples and all the tree specifications:

# note that tidyr::crossing() used to work for this operation but no
# longer does
crossed <- expand_grid(folds, spec_df)
crossed

# A tibble: 100 × 4
   splits           id     spec      model_id
   <list>           <chr>  <list>       <int>
 1 <split [135/15]> Fold01 <spec[?]>        1
 2 <split [135/15]> Fold01 <spec[?]>        2
 3 <split [135/15]> Fold01 <spec[?]>        3
 4 <split [135/15]> Fold01 <spec[?]>        4
 5 <split [135/15]> Fold01 <spec[?]>        5
 6 <split [135/15]> Fold01 <spec[?]>        6
 7 <split [135/15]> Fold01 <spec[?]>        7
 8 <split [135/15]> Fold01 <spec[?]>        8
 9 <split [135/15]> Fold01 <spec[?]>        9
10 <split [135/15]> Fold01 <spec[?]>       10
# … with 90 more rows
…
Now we use our helper to get predictions for each fold, for each hyperparameter combination. First we get the complete set of predictions for each fold and save them in a list-column called raw_preds. Then, since the predictions are perfectly correlated (.pred_setosa + .pred_versicolor + .pred_virginica = 1), we drop the last column of predictions to avoid issues with metalearners sensitive to colinearity. Finally, the preds column will be a list-column, so we unnest() to take a look.

drop_last_column <- function(df) df[, -ncol(df)]

holdout_preds <- cv_fits %>% 
  mutate(
    raw_preds = future_pmap(list(fit, splits, prepped), predict_helper, .options = opts),
    preds = future_map(raw_preds, drop_last_column, .options = opts)
  )

holdout_preds %>% 
  unnest(preds)

# A tibble: 1,500 × 10
   splits           id     spec      model_id prepped  fit      raw_preds   obs
   <list>           <chr>  <list>       <int> <list>   <list>   <list>    <int>
 1 <split [135/15]> Fold01 <spec[?]>        1 <recipe> <fit[+]> <tibble>     15
 2 <split [135/15]> Fold01 <spec[?]>        1 <recipe> <fit[+]> <tibble>     23
 3 <split [135/15]> Fold01 <spec[?]>        1 <recipe> <fit[+]> <tibble>     29
 4 <split [135/15]> Fold01 <spec[?]>        1 <recipe> <fit[+]> <tibble>     36
 5 <split [135/15]> Fold01 <spec[?]>        1 <recipe> <fit[+]> <tibble>     37
 6 <split [135/15]> Fold01 <spec[?]>        1 <recipe> <fit[+]> <tibble>     48
 7 <split [135/15]> Fold01 <spec[?]>        1 <recipe> <fit[+]> <tibble>     56
 8 <split [135/15]> Fold01 <spec[?]>        1 <recipe> <fit[+]> <tibble>     59
 9 <split [135/15]> Fold01 <spec[?]>        1 <recipe> <fit[+]> <tibble>     70
10 <split [135/15]> Fold01 <spec[?]>        1 <recipe> <fit[+]> <tibble>     89
# … with 1,490 more rows, and 2 more variables: .pred_setosa <dbl>,
#   .pred_versicolor <dbl>
…
spread_nested_predictions <- function(data) {
  data %>% 
    unnest(preds) %>% 
    pivot_wider(
      id_cols = obs,
      names_from = model_id,
      values_from = contains(".pred")
    )
}

holdout_preds <- spread_nested_predictions(holdout_preds)
holdout_preds

# A tibble: 150 × 21
     obs .pred_setosa_1 .pred_setosa_2 .pred_setosa_3 .pred_setosa_4
   <int>          <dbl>          <dbl>          <dbl>          <dbl>
 1    15        0.985          0.985          0.985          0.985  
 2    23        0.985          0.985          0.985          0.985  
 3    29        0.985          0.985          0.985          0.985  
 4    36        0.985          0.985          0.985          0.985  
 5    37        0.985          0.985          0.985          0.985  
 6    48        0.985          0.985          0.985          0.985  
 7    56        0.00758        0.00758        0.00758        0.00758
 8    59        0.00758        0.00758        0.00758        0.00758
 9    70        0.00758        0.00758        0.00758        0.00758
10    89        0.00758        0.00758        0.00758        0.00758
# … with 140 more rows, and 16 more variables: .pred_setosa_5 <dbl>,
#   .pred_setosa_6 <dbl>, .pred_setosa_7 <dbl>, .pred_setosa_8 <dbl>,
#   .pred_setosa_9 <dbl>, .pred_setosa_10 <dbl>, .pred_versicolor_1 <dbl>,
#   .pred_versicolor_2 <dbl>, .pred_versicolor_3 <dbl>,
#   .pred_versicolor_4 <dbl>, .pred_versicolor_5 <dbl>,
#   .pred_versicolor_6 <dbl>, .pred_versicolor_7 <dbl>,
#   .pred_versicolor_8 <dbl>, .pred_versicolor_9 <dbl>, …

We’re almost ready to fit a the metalearning model on top of these predictions, but first we need to join these predictions back to the original dataset using obs to recover the labels!

meta_train <- data %>% 
  mutate(obs = row_number()) %>% 
  right_join(holdout_preds, by = "obs") %>% 
  select(Species, contains(".pred"))

meta_train

# A tibble: 150 × 21
   Species .pred_setosa_1 .pred_setosa_2 .pred_setosa_3 .pred_setosa_4
   <fct>            <dbl>          <dbl>          <dbl>          <dbl>
 1 setosa           0.985          0.985          0.985          0.985
 2 setosa           0.986          0.986          0.986          0.986
 3 setosa           0.986          0.986          0.986          0.986
 4 setosa           0.986          0.986          0.986          0.986
 5 setosa           0.985          0.985          0.985          0.985
 6 setosa           0.985          0.985          0.985          0.985
 7 setosa           0.986          0.986          0.986          0.986
 8 setosa           0.985          0.985          0.985          0.985
 9 setosa           0.986          0.986          0.986          0.986
10 setosa           0.986          0.986          0.986          0.986
# … with 140 more rows, and 16 more variables: .pred_setosa_5 <dbl>,
#   .pred_setosa_6 <dbl>, .pred_setosa_7 <dbl>, .pred_setosa_8 <dbl>,
#   .pred_setosa_9 <dbl>, .pred_setosa_10 <dbl>, .pred_versicolor_1 <dbl>,
#   .pred_versicolor_2 <dbl>, .pred_versicolor_3 <dbl>,
#   .pred_versicolor_4 <dbl>, .pred_versicolor_5 <dbl>,
#   .pred_versicolor_6 <dbl>, .pred_versicolor_7 <dbl>,
#   .pred_versicolor_8 <dbl>, .pred_versicolor_9 <dbl>, …
…
